{
    "success": true,
    "message": "",
    "result": [
        {
            "MarketName": "BTC-LTC",
            "High": 0.00616223,
            "Low": 0.00580000,
            "MarketVolume": 5677.70361348,
            "Last": 0.00604604,
            "BaseVolume": 33.92950046,
            "TimeStamp": "2016-07-27T09:12:56.6",
            "Bid": 0.00605000,
            "Ask": 0.00608000,
            "OpenBuyOrders": 142,
            "OpenSellOrders": 764,
            "PrevDay": "",
            "Created": "2014-02-13T00:00:00"
        }
    ]
}